$ 1 0.000005 0.48711659992454737 36 5 43 5e-11
178 80 96 128 96 0 1 0.2 1.7123654713772254e-7 0.05 1000000 0.02 20
w 128 112 176 112 0
d 128 112 128 176 2 default
w 80 144 80 176 0
d 16 176 80 176 2 default
w 128 176 80 176 2
w 16 176 16 256 0
w 16 256 176 256 0
162 176 160 176 112 2 default-led 1 0 0 0.01
r 176 160 176 256 0 1000
162 224 112 224 160 2 default-led 1 0 0 0.01
w 176 112 224 112 0
r 224 160 224 256 0 1000
w 224 256 176 256 0
w 224 112 320 112 3
w 224 256 368 256 0
r 320 112 368 112 0 1
v 368 112 368 256 0 0 40 12 0 0 0.5
w 16 176 16 128 1
r 16 128 80 128 0 330
v 464 256 464 112 0 0 40 8 0 0 0.5
